Chapter 13 Testing hypotheses | Data Analysis for Psychology in R (dapR1) - Labs
…
Assign the probabilities of each possible outcome, remembering that the probabilities must sum to one:

Probability of success (S) = probability of correctly guessing the symbol: \(p = 1/5\)

Probability of failure (F) is the complement to one: \(1 - p = 1 - 1/5 = 4/5\).

prob <- c(1/5, 4/5)

Generate 1000 samples of size \(n = 98\) from the distribution specified by the null hypothesis (null distribution):

samples <- rep_sample_n(outcomes, size = 98, replace = TRUE, reps = 1000, prob = prob)
samples

## # A tibble: 98,000 x 2
## # Groups:   replicate [1,000]
##    replicate vals 
##        <int> <fct>
##  1         1 F    
##  2         1 F    
##  3         1 F    
##  4         1 S    
##  5         1 F    
##  6         1 S    
##  7         1 S    
##  8         1 F    
##  9         1 F    
## 10         1 F    
## # … with 97,990 more rows

Note that the tibble has \(98,000\) rows. Each sample of size \(n = 98\) represents a sequence of 98 plays where each play can either be S (your partner correctly guessed your card) or F (your partner didn’t guess correctly). Hence, each sample is a sequence of S’s and F’s. Because we have 1000 of such samples, the total number of rows will be \(98 \times 1000 = 98,000\).

We can now compute the proportion of successes in each sample:

sample_props <- samples %>% 
  group_by(replicate) %>%
  summarise(prop = sum(vals == 'S') / n())

sample_props

## # A tibble: 1,000 x 2
##    replicate  prop
##        <int> <dbl>
##  1         1 0.163
##  2         2 0.184
##  3         3 0.143
##  4         4 0.235
##  5         5 0.224
##  6         6 0.214
##  7         7 0.204
##  8         8 0.184
##  9         9 0.224
## 10        10 0.224
## # … with 990 more rows
…
Load the tidyverse and moderndive packages:

library(tidyverse)
library(moderndive)

Importing the data

Let’s start by loading the data using the function read_tsv to read tab separated values:

bodytemp <- read_tsv('https://edin.ac/2vkjSaw')
bodytemp

## # A tibble: 50 x 2
##    BodyTemp Pulse
##       <dbl> <dbl>
##  1     36.4    69
##  2     37.4    77
##  3     37.2    75
##  4     37.1    84
##  5     36.7    71
##  6     37.2    76
##  7     37.2    81
##  8     36.6    77
##  9     36      75
## 10     37.2    81
## # … with 40 more rows
…
Plot the bootstrap distribution using a histogram.

► Solution

The following code chunk computes the bootstrap distribution using 10,000 repeated samples:

bootstrap_distribution <- bodytemp %>%
  rep_sample_n(size = 50, replace = TRUE, reps = 10000) %>%
  group_by(replicate) %>%
  summarise(avg_temp = mean(BodyTemp))

bootstrap_distribution

## # A tibble: 10,000 x 2
##    replicate avg_temp
##        <int>    <dbl>
##  1         1     36.7
##  2         2     36.8
##  3         3     36.8
##  4         4     36.7
##  5         5     36.9
##  6         6     36.8
##  7         7     36.8
##  8         8     36.8
##  9         9     36.9
## 10        10     36.8
## # … with 9,990 more rows
…
## [1] 0.1888889

Shift the original sample data values:

bodytemp_null <- bodytemp %>%
  mutate(BodyTemp = BodyTemp + shift)

null_distribution <- bodytemp_null %>%
  rep_sample_n(size = 50, replace = TRUE, reps = 10000) %>%
  group_by(replicate) %>%
  summarise(avg_temp = mean(BodyTemp))
null_distribution

## # A tibble: 10,000 x 2
##    replicate avg_temp
##        <int>    <dbl>
##  1         1     37.1
##  2         2     37.1
##  3         3     37.0
##  4         4     36.9
##  5         5     37.0
##  6         6     37.1
##  7         7     37.1
##  8         8     36.9
##  9         9     36.9
## 10        10     37.1
## # … with 9,990 more rows
…
