Chapter 11 Sampling distributions | Data Analysis for Psychology in R (dapR1) - Labs
…
In order to randomly sample players, we will use a package called moderndive. If you do not have it installed, run the following command:

install.packages("moderndive")

We then load the package and create a sample of size \(n = 50\) players:

library(moderndive)

nfl_sample_1 <- nfl %>%
  rep_sample_n(size = 50)

nfl_sample_1

## # A tibble: 50 x 6
## # Groups:   replicate [1]
##    replicate Player              Position Team     TotalMoney YearlySalary
##        <int> <chr>               <chr>    <chr>         <dbl>        <dbl>
##  1         1 Craig Dahl          S        Giants        0.87         0.87 
##  2         1 Jarrett Bush        CB       Packers       5.25         1.75 
##  3         1 Shayne Graham       K        Saints        0.98         0.98 
##  4         1 Christian Covington 34DT     Texans        2.37         0.593
##  5         1 Pat McAfee          P        Colts        14.5          2.9  
##  6         1 Ron Parker          S        Chiefs       25            5    
##  7         1 Bryan Walters       WR       Jaguars       1.44         0.723
##  8         1 John Greco          RG       Browns        8.37         2.09 
##  9         1 Trenton Robinson    S        Redskins      0.685        0.68 
## 10         1 Paul Worrilow       ILB      Falcons       1.49         0.496
## # ... with 40 more rows
…
We can see that the average salary in our sample is \(\bar{x} =\) 2.1 million dollars.

The sample mean, 2.1, is close to the population mean, 2.24, however not exactly the same. We are not surprised of this result: we do not expect the mean of every sample to be exactly equal to the population mean, but we do hope that they are somewhat close.

Question 3.

Let’s take another random sample of size 50 and compute the sample mean salaries.

nfl_sample_2 <- nfl %>%
  rep_sample_n(size = 50)
nfl_sample_2

## # A tibble: 50 x 6
## # Groups:   replicate [1]
##    replicate Player           Position Team      TotalMoney YearlySalary
##        <int> <chr>            <chr>    <chr>          <dbl>        <dbl>
##  1         1 Trevor Scott     43DE     Bears          0.73         0.73 
##  2         1 Scott Crichton   43DE     Vikings        3.02         0.755
##  3         1 NaVorro Bowman   ILB      49ers         45.2          9.05 
##  4         1 Brian Dixon      CB       Saints         1.53         0.51 
##  5         1 Kyle Williams    WR       Broncos        0.745        0.745
##  6         1 Tony Jefferson   S        Cardinals      1.50         0.498
##  7         1 Anthony Hitchens 43OLB    Cowboys        2.66         0.664
##  8         1 Cedric Ogbuehi   RT       Bengals        9.33         2.33 
##  9         1 Jordan Poyer     CB       Browns         2.22         0.555
## 10         1 Brent Celek      TE       Eagles        29.2          4.88 
## # ... with 40 more rows
…
## # A tibble: 1 x 2
##   replicate   avg
##       <int> <dbl>
## 1         1  2.05

The statistic computed on the second sample is \(\bar{x} =\) 2.05. Again, this is similar to the population parameter, \(\mu =\) 2.24.
We also note that the mean computed on the second sample is different from the mean computed on the first sample.

We could also have immediately obtained two samples, each of size \(n = 50\) units. This means that we repeat/replicate the activity of sampling 50 units twice. This is done in the function rep_sample_n(size = 50) by including the extra argument reps = 2:

nfl_samples <- nfl %>%
  rep_sample_n(size = 50, reps = 2)
nfl_samples

## # A tibble: 100 x 6
## # Groups:   replicate [2]
##    replicate Player             Position Team       TotalMoney YearlySalary
##        <int> <chr>              <chr>    <chr>           <dbl>        <dbl>
##  1         1 Andrew Luck        QB       Colts          38.3          7.65 
##  2         1 Antonio Brown      WR       Steelers       42.0          8.39 
##  3         1 Patrick Chung      S        Patriots        7.2          2.4  
##  4         1 Chris Williams     LG       Bills          13.2          3.29 
##  5         1 Chris Lewis-Harris CB       Bengals         0.585        0.585
##  6         1 Lance Louis        RG       Colts           2.02         1.01 
##  7         1 Adam Humphries     WR       Buccaneers      1.58         0.525
##  8         1 Wade Keliikipi     DT       Eagles          1.58         0.525
##  9         1 Dustin Colquitt    P        Chiefs         18.8          3.75 
## 10         1 Tyronne Green      G        Panthers        0.745        0.745
## # ... with 90 more rows
…
## # A tibble: 2 x 2
##   replicate   avg
##       <int> <dbl>
## 1         1  2.57
## 2         2  2.19

We see that both are close to the population parameter which, we remind, is equal to 2.24.

Clearly, we can now extend this repeated sampling procedure to more than just two samples of size = 50. Let us try to obtain 1000 repeated samples all of size 50 from the sample population.

nfl_samples <- nfl %>%
  rep_sample_n(size = 50, reps = 1000)
nfl_samples

## # A tibble: 50,000 x 6
## # Groups:   replicate [1,000]
##    replicate Player           Position Team       TotalMoney YearlySalary
##        <int> <chr>            <chr>    <chr>           <dbl>        <dbl>
##  1         1 Matthew Masifilo 43DE     Buccaneers      1.11         0.555
##  2         1 Kyle Juszczyk    FB       Ravens          2.46         0.615
##  3         1 Gabe Jackson     LG       Raiders         2.86         0.714
##  4         1 Akeem Ayers      43OLB    Rams            6            3    
##  5         1 Andy Mulumba     LB       Packers         1.49         0.497
##  6         1 Corey Linsley    C        Packers         2.40         0.601
##  7         1 Billy Turner     T        Dolphins        3.15         0.787
##  8         1 Bennett Jackson  CB       Giants          0.435        0.435
##  9         1 Chase Daniel     QB       Chiefs         10            3.33 
## 10         1 Scott Lutrus     LB       Colts           1.40         0.465
## # ... with 49,990 more rows

This tibble has \(50 \times 2000 = 100,000\) rows. The first 50 players are part of the 1st sample, the next 50 belong to the 2nd sample, and so on…

We can now compute the mean of each of the 2000 samples, obtaining a tibble of 2000 sample means:

nfl_avgs <- nfl_samples %>%
  group_by(replicate) %>%
  summarise(avg = mean(YearlySalary))
nfl_avgs

## # A tibble: 1,000 x 2
##    replicate   avg
##        <int> <dbl>
##  1         1  2.74
##  2         2  1.69
##  3         3  2.44
##  4         4  2.29
##  5         5  2.37
##  6         6  2.63
##  7         7  2.46
##  8         8  1.99
##  9         9  2.29
## 10        10  2.28
## # ... with 990 more rows
…
